Read in voting register identifiers — read_voting_register_ids • fokus
…
    Other data import functions:
read_easyvote_municipalities(),
read_online_participation_codes(),
read_private_file(),
read_voting_register_data_extra()

    Examples

# GitLab PAT with access to the private FOKUS repository is required for this function to work
try(
  fokus::read_voting_register_ids(ballot_date = "2019-10-20",
                                  canton = "aargau")
)
#> # A tibble: 10,000 × 1
#>    id_voting_register
#>                 <int>
#>  1             100340
#>  2             100374
#>  3             100416
#>  4             100478
#>  5             100670
#>  6             100691
#>  7             100727
#>  8             100762
#>  9             100804
#> 10             100878
#> # ℹ 9,990 more rows
…
